{
    "icons": {
        "Foxy":"https://imgur.com/3Qst2fN.png",
        "ConquestWatcher":"https://imgur.com/fFgrkSY.png",
        "Garama":"https://imgur.com/XX5JEie.png",
        "Ascalon":"https://imgur.com/dr9PKOZ.png",
        "Kalros":"https://imgur.com/zGMPNY0.png",
        "Balak":"https://imgur.com/14Ptvnt.png",
        "Rivina":"https://imgur.com/SRYQZKC.png",
        "Infested":"https://imgur.com/PV6SOgW.png",
        "Biomes": {
            "Forest":"https://imgur.com/MdvMxvW",
            "BirchForest":"https://imgur.com/fkgthw6",
            "ClayCliffs":"https://imgur.com/2tAQaCK",
            "SunsetIsles":"https://cdn.discordapp.com/attachments/983637189743214602/983654428227821638/SunsetIsles.png",
            "MushroomIsle":"https://imgur.com/uU2gfP4",
            "Plains":"https://imgur.com/vhZZxd9",
            "Marsh":"https://imgur.com/TojJJoA",
            "Mountains":"https://imgur.com/c3ipK25",
            "AncientForest":"https://imgur.com/5Qwppsu",
            "Jungle":"https://imgur.com/6h2odvO",
            "AncientJungle":"https://imgur.com/n6Qd9Ib",
            "Swamp":"https://imgur.com/Bh4VDSV",
            "Desert":"https://imgur.com/DIASokH",
            "Mesa":"https://imgur.com/jxcZUUh",
            "DeadLands":"https://imgur.com/20GRmrO",
            "Savannah":"https://imgur.com/3uzNqSA",
            "Moor":"https://imgur.com/AsfyM5x",
            "RoofedForest":"https://imgur.com/M0hxfvp",
            "Taiga":"https://imgur.com/AF9pugZ",
            "MegaTaiga":"https://imgur.com/FIjfD1W",
            "IceWastes":"https://imgur.com/tkIqGtw",
            "IceMountains":"https://imgur.com/e2tLpgT",
            "IceTaiga":"https://imgur.com/OV2RUA1",
            "Balak":"https://imgur.com/s9q3Ef7",
            "ArvanBluffs":"https://imgur.com/TZhXyhU",
            "JadeHighlands":"https://imgur.com/34xk0W8",
            "RiviShores":"https://imgur.com/6il9zNe",
            "StonyAtoll":"https://imgur.com/8VOkQeN",
            "VerdantHollows":"https://imgur.com/O4FsuAw"
        }
    },
    "channels": {
        "Kalros": "915860809245130784",
        "Ascalon":"915860837632188426",
        "Garama":"915860875603247116",
        "Rivina":"915860964212092960",
        "Balak":"915860987427569674",
        "Infested":"936028668575223918"
    },
    "servers": {
        "Conquest_Watcher": {
            "server_id":"915860346630197279",
            "server_invite":"https://discord.gg/N3mFBvB3Cz"
        },
        "FoxBox":{
            "server_id":"859461496883118081",
            "server_invite":"https://discord.gg/RKqbTTWQMP"
        }
    },
    "webhook_keys": {
        "Kalros": "https://discord.com/api/webhooks/916169043583586304/eQfM3pvkCaF4ptJqhDtQfbBxhAaexWjddh5y8kxh5RJEb6UTeCxOmoWNX5eYm7Dvrg8r",
        "Ascalon":"https://discord.com/api/webhooks/916489765250015282/pu8EctDe8MSDAM9PdfYxP9SwvH-phr5XbpKp77nl7-Vf2TN__e-20MENl3-s1F_Y621T",
        "Garama":"https://discord.com/api/webhooks/916583931288096788/FYrPY_i_tH-isMbWUSR2mkyzAh7joWRh8LIFMzm1Lvwt-P28UvHMpseeAOqi8Le24Mcy",
        "Rivina":"https://discord.com/api/webhooks/916584565085200425/ZWvt02JtUQaw8wxALk6mbefgLpMaHdKjcZT3rQHUnSvV72ccx7SFBlq5aCFlZLs_ntYZ",
        "Balak":"https://discord.com/api/webhooks/916584651911495720/7EuNOAIWn5DcwcK3nQS6wk4KH2RSOk387YldpBaWhQq-C9PDizhzsyj5QsfdiSeDDiP8",
        "Reinforcements":"https://discord.com/api/webhooks/952300854327799830/N0B6p1bEfoKZkSr7T6jDGgQBzACA_6ywalgD5a-h-MYyaIpD_5c0b8w_LkQ2GZeZxf-V",
        "Developer":"https://discord.com/api/webhooks/983589799208312852/RAVe112K1Ty8dZGODSIqYuNqdBjkiR6OdWio4TO6aKtWw3iUtdfWmOuPHC9LQmD89Ael",
        "Streams":"https://discord.com/api/webhooks/991783761660350464/WSo7Fi_U6y--abnSUNIuFPjqI-nx7xOgLosHpzn72oUC94ZjBXJUdRc0G84QTxzqKQ8j"
    },
    "colors": {
        "Kalros": "0x246dd4",
        "Ascalon":"0x00a36c",
        "Garama":"0xf5a232",
        "Rivina":"0x32c0b4",
        "Balak":"0xdc1417"
    },
    "endpoints": {
        "Kalros": "https://map.lokamc.com/kalros/tiles/_markers_/marker_north.json",
        "Ascalon":"https://map.lokamc.com/ascalon/tiles/_markers_/marker_west.json",
        "Garama":"https://map.lokamc.com/garama/tiles/_markers_/marker_south.json",
        "Rivina":"https://map.lokamc.com/conquest/tiles/_markers_/marker_lilboi.json",
        "Balak":"https://map.lokamc.com/conquest/tiles/_markers_/marker_bigboi.json"
    },
    "twitch": {
        "streamers":["foxybeargames","LokaMinecraft"],
        "client_id":"ujzv45o3wvq9szh8fkw4nr71xeiloj",
        "client_secret":"hbrmrsoclv90cl73rkwgmrlz16no5n"
    },
    "mongo":{
        "password":"2rQOL4ND42vLMgDl"
    }
}